{"count":13,"next":"http://127.0.0.1:8000/api/recipe/?category=meet&limit=10&offset=10","previous":null,"results":[{"id":1,"name":"Taco1","ingredients":[{"id":1,"name":"beef","category":1},{"id":2,"name":"tomato","category":2}]},{"id":3,"name":"chicken taco","ingredients":[{"id":4,"name":"chiken","category":1}]},{"id":6,"name":"test taco","ingredients":[{"id":1,"name":"beef","category":1},{"id":4,"name":"chiken","category":1}]},{"id":6,"name":"test taco","ingredients":[{"id":1,"name":"beef","category":1},{"id":4,"name":"chiken","category":1}]},{"id":5,"name":"Update-taco","ingredients":[{"id":1,"name":"beef","category":1},{"id":4,"name":"chiken","category":1}]},{"id":5,"name":"Update-taco","ingredients":[{"id":1,"name":"beef","category":1},{"id":4,"name":"chiken","category":1}]},{"id":7,"name":"test taco","ingredients":[{"id":1,"name":"beef","category":1},{"id":4,"name":"chiken","category":1}]},{"id":7,"name":"test taco","ingredients":[{"id":1,"name":"beef","category":1},{"id":4,"name":"chiken","category":1}]},{"id":8,"name":"test taco","ingredients":[{"id":1,"name":"beef","category":1},{"id":6,"name":"ice","category":3}]},{"id":9,"name":"test taco","ingredients":[{"id":1,"name":"beef","category":1},{"id":3,"name":"cheese","category":3}]}]}